<?xml version="1.0" encoding="UTF-8"?>
<!-- Generator: Adobe Illustrator 19.2.1, SVG Export Plug-In . SVG Version: 6.00 Build 0)  -->
<svg version="1.1" id="Layer_1" xmlns="http://www.w3.org/2000/svg" xmlns:xlink="http://www.w3.org/1999/xlink" x="0px" y="0px" viewBox="0 0 273.7 101" style="enable-background:new 0 0 273.7 101;" xml:space="preserve">
<style type="text/css">
	.st0{fill:#CDCDCD;}
	.st1{fill:#666666;}
	.st2{fill:none;stroke:#000000;stroke-miterlimit:10;}
</style>
<g>
	<path class="st0" d="M269.2,41.5l-7.4,52.2c-0.3,2.4-2.6,4.1-5,3.7l-60.9-8.6c-2.4-0.3-4.1-2.6-3.7-5l10.3-72.5   c0.3-2.4,2.6-4.1,5-3.7l40.6,5.8c2.4,0.3,5.6,2.2,7,4.1l12.1,16.1C268.6,35.6,269.5,39.1,269.2,41.5z M262.7,45l-18.8-2.7   c-2.4-0.3-4.1-2.6-3.7-5l2.7-18.8L208,13.6l-9.9,69.6l58,8.2L262.7,45z M246.2,36.8l17,2.4c-0.2-0.8-0.5-1.6-0.7-2L250.3,21   c-0.3-0.4-1-0.9-1.7-1.3L246.2,36.8z"/>
</g>
<g>
	<path class="st0" d="M170.7,24l10.1,51.7c0.5,2.4-1.1,4.7-3.5,5.2L117,92.7c-2.4,0.5-4.7-1.1-5.2-3.5l-14-71.9   c-0.5-2.4,1.1-4.7,3.5-5.2l40.2-7.8c2.4-0.5,6,0.3,8,1.6l16.7,11.3C168.2,18.6,170.2,21.7,170.7,24z M165.8,29.5l-18.7,3.6   c-2.4,0.5-4.7-1.1-5.2-3.5L138.3,11l-34.5,6.7l13.4,69l57.5-11.2L165.8,29.5z M147.4,27.1l16.9-3.3c-0.4-0.7-1-1.4-1.3-1.7   l-16.8-11.3c-0.4-0.3-1.2-0.5-2-0.6L147.4,27.1z"/>
</g>
<g>
	<path class="st0" d="M80.5,40.3l-4.3,52.5c-0.2,2.4-2.3,4.2-4.7,4l-61.3-5c-2.4-0.2-4.2-2.3-4-4.7l6-73c0.2-2.4,2.3-4.2,4.7-4   l40.9,3.3c2.4,0.2,5.7,1.9,7.2,3.7L78,32.5C79.6,34.4,80.7,37.8,80.5,40.3z M74.3,44.2l-19-1.5c-2.4-0.2-4.2-2.3-4-4.7l1.5-19   l-35-2.9l-5.7,70.1l58.4,4.8L74.3,44.2z M57.3,36.9l17.1,1.4c-0.2-0.8-0.6-1.6-0.9-2L60.5,20.9c-0.3-0.3-1-0.8-1.8-1.2L57.3,36.9z"/>
</g>
<g>
	<path class="st0" d="M126.6,56.2c-2.2,0.5-4.3-0.9-4.7-3.1c-0.5-2.2,0.9-4.3,3.1-4.7c2.2-0.5,4.3,0.9,4.7,3.1   S128.7,55.7,126.6,56.2z M128.8,66.6c-2.2,0.5-4.3-0.9-4.7-3.1c-0.5-2.2,0.9-4.3,3.1-4.7c2.2-0.5,4.3,0.9,4.7,3.1   C132.3,64,131,66.2,128.8,66.6z M131,77c-2.2,0.5-4.3-0.9-4.7-3.1s0.9-4.3,3.1-4.7c2.2-0.5,4.3,0.9,4.7,3.1   C134.6,74.5,133.2,76.6,131,77z M158.7,47.3c0.1,0.3-0.2,0.7-0.5,0.8l-24.8,5.3c-0.3,0.1-0.7-0.2-0.8-0.5l-0.8-3.9   c-0.1-0.3,0.2-0.7,0.5-0.8l24.8-5.3c0.3-0.1,0.7,0.2,0.8,0.5L158.7,47.3z M161,57.7c0.1,0.3-0.2,0.7-0.5,0.8l-24.8,5.3   c-0.3,0.1-0.7-0.2-0.8-0.5l-0.8-3.9c-0.1-0.3,0.2-0.7,0.5-0.8l24.8-5.3c0.3-0.1,0.7,0.2,0.8,0.5L161,57.7z M163.2,68.2   c0.1,0.3-0.2,0.7-0.5,0.8l-24.8,5.3c-0.3,0.1-0.7-0.2-0.8-0.5l-0.8-3.9c-0.1-0.3,0.2-0.7,0.5-0.8l24.8-5.3c0.3-0.1,0.7,0.2,0.8,0.5   L163.2,68.2z"/>
</g>
<g>
	<path class="st0" d="M220.1,76.2c-0.2,1.1-1.2,1.8-2.3,1.7l-6.6-1c-1.1-0.2-1.8-1.2-1.7-2.3l0.6-4c0.2-1.1,1.2-1.8,2.3-1.7l6.6,1   c1.1,0.2,1.8,1.2,1.7,2.3L220.1,76.2z M221.6,65.6c-0.2,1.1-1.2,1.8-2.3,1.7l-6.6-1c-1.1-0.2-1.8-1.2-1.7-2.3l0.6-4   c0.2-1.1,1.2-1.8,2.3-1.7l6.6,1c1.1,0.2,1.8,1.2,1.7,2.3L221.6,65.6z M223.1,55.1c-0.2,1.1-1.2,1.8-2.3,1.7l-6.6-1   c-1.1-0.2-1.8-1.2-1.7-2.3l0.6-4c0.2-1.1,1.2-1.8,2.3-1.7l6.6,1c1.1,0.2,1.8,1.2,1.7,2.3L223.1,55.1z M233.3,78.1   c-0.2,1.1-1.2,1.8-2.3,1.7l-6.6-1c-1.1-0.2-1.8-1.2-1.7-2.3l0.6-4c0.2-1.1,1.2-1.8,2.3-1.7l6.6,1c1.1,0.2,1.8,1.2,1.7,2.3   L233.3,78.1z M234.8,67.5c-0.2,1.1-1.2,1.8-2.3,1.7l-6.6-1c-1.1-0.2-1.8-1.2-1.7-2.3l0.6-4c0.2-1.1,1.2-1.8,2.3-1.7l6.6,1   c1.1,0.2,1.8,1.2,1.7,2.3L234.8,67.5z M236.3,57c-0.2,1.1-1.2,1.8-2.3,1.7l-6.6-1c-1.1-0.2-1.8-1.2-1.7-2.3l0.6-4   c0.2-1.1,1.2-1.8,2.3-1.7l6.6,1c1.1,0.2,1.8,1.2,1.7,2.3L236.3,57z M246.5,80c-0.2,1.1-1.2,1.8-2.3,1.7l-6.6-1   c-1.1-0.2-1.8-1.2-1.7-2.3l0.6-4c0.2-1.1,1.2-1.8,2.3-1.7l6.6,1c1.1,0.2,1.8,1.2,1.7,2.3L246.5,80z M248,69.4   c-0.2,1.1-1.2,1.8-2.3,1.7l-6.6-1c-1.1-0.2-1.8-1.2-1.7-2.3l0.6-4c0.2-1.1,1.2-1.8,2.3-1.7l6.6,1c1.1,0.2,1.8,1.2,1.7,2.3L248,69.4   z M249.5,58.9c-0.2,1.1-1.2,1.8-2.3,1.7l-6.6-1c-1.1-0.2-1.8-1.2-1.7-2.3l0.6-4c0.2-1.1,1.2-1.8,2.3-1.7l6.6,1   c1.1,0.2,1.8,1.2,1.7,2.3L249.5,58.9z"/>
</g>
<g>
	<path class="st0" d="M58.2,79.2c-0.2,1.8-1.8,3.2-3.6,3l-27.9-2.4c-1.8-0.2-3.2-1.8-3-3.6l2-22.6c0.2-1.8,1.8-3.2,3.6-3L57.1,53   c1.8,0.2,3.2,1.8,3,3.6L58.2,79.2z M34.6,73.1c0-0.4-0.2-0.7-0.6-0.7l-6.6-0.6c-0.4,0-0.7,0.2-0.7,0.6l-0.3,4   c0,0.4,0.2,0.7,0.6,0.7l6.6,0.6c0.4,0,0.7-0.2,0.7-0.6L34.6,73.1z M35.3,65.2c0-0.4-0.2-0.7-0.6-0.7l-6.6-0.6   c-0.4,0-0.7,0.2-0.7,0.6l-0.3,4c0,0.4,0.2,0.7,0.6,0.7l6.6,0.6c0.4,0,0.7-0.2,0.7-0.6L35.3,65.2z M36,57.2c0-0.4-0.2-0.7-0.6-0.7   l-6.6-0.6c-0.4,0-0.7,0.2-0.7,0.6l-0.3,4c0,0.4,0.2,0.7,0.6,0.7l6.6,0.6c0.4,0,0.7-0.2,0.7-0.6L36,57.2z M45.2,74   c0-0.4-0.2-0.7-0.6-0.7L38,72.7c-0.4,0-0.7,0.2-0.7,0.6l-0.3,4c0,0.4,0.2,0.7,0.6,0.7l6.6,0.6c0.4,0,0.7-0.2,0.7-0.6L45.2,74z    M45.9,66.1c0-0.4-0.2-0.7-0.6-0.7l-6.6-0.6c-0.4,0-0.7,0.2-0.7,0.6l-0.3,4c0,0.4,0.2,0.7,0.6,0.7l6.6,0.6c0.4,0,0.7-0.2,0.7-0.6   L45.9,66.1z M46.6,58.1c0-0.4-0.2-0.7-0.6-0.7l-6.6-0.6c-0.4,0-0.7,0.2-0.7,0.6l-0.3,4c0,0.4,0.2,0.7,0.6,0.7l6.6,0.6   c0.4,0,0.7-0.2,0.7-0.6L46.6,58.1z M55.9,75c0-0.4-0.2-0.7-0.6-0.7l-6.6-0.6c-0.4,0-0.7,0.2-0.7,0.6l-0.3,4c0,0.4,0.2,0.7,0.6,0.7   l6.6,0.6c0.4,0,0.7-0.2,0.7-0.6L55.9,75z M56.5,67c0-0.4-0.2-0.7-0.6-0.7l-6.6-0.6c-0.4,0-0.7,0.2-0.7,0.6l-0.3,4   c0,0.4,0.2,0.7,0.6,0.7l6.6,0.6c0.4,0,0.7-0.2,0.7-0.6L56.5,67z M57.2,59c0-0.4-0.2-0.7-0.6-0.7L50,57.7c-0.4,0-0.7,0.2-0.7,0.6   l-0.3,4c0,0.4,0.2,0.7,0.6,0.7l6.6,0.6c0.4,0,0.7-0.2,0.7-0.6L57.2,59z"/>
</g>
</svg>